<?xml version="1.0" encoding="UTF-8" standalone="no"?>
<svg
   xmlns:dc="http://purl.org/dc/elements/1.1/"
   xmlns:cc="http://creativecommons.org/ns#"
   xmlns:rdf="http://www.w3.org/1999/02/22-rdf-syntax-ns#"
   xmlns:svg="http://www.w3.org/2000/svg"
   xmlns="http://www.w3.org/2000/svg"
   xmlns:sodipodi="http://sodipodi.sourceforge.net/DTD/sodipodi-0.dtd"
   xmlns:inkscape="http://www.inkscape.org/namespaces/inkscape"
   version="1.1"
   width="300"
   height="56"
   viewBox="0 0 300 56"
   id="svg1921"
   sodipodi:version="0.32"
   inkscape:version="1.0beta1 (a4ee55bc41, 2019-11-15)"
   sodipodi:docname="advanced-f04.svg">
  <defs
     id="defs3" />
  <sodipodi:namedview
     inkscape:lockguides="true"
     id="base"
     pagecolor="#ffffff"
     bordercolor="#666666"
     borderopacity="1.0"
     inkscape:pageopacity="0.0"
     inkscape:pageshadow="2"
     inkscape:zoom="1.4"
     inkscape:cx="344.53143"
     inkscape:cy="35.226085"
     inkscape:document-units="px"
     inkscape:current-layer="layer1"
     inkscape:document-rotation="0"
     showgrid="false"
     units="px"
     showguides="true"
     inkscape:guide-bbox="true"
     inkscape:window-width="1866"
     inkscape:window-height="1053"
     inkscape:window-x="54"
     inkscape:window-y="27"
     inkscape:window-maximized="0" />
  <metadata
     id="metadata4">
    <rdf:RDF>
      <cc:Work
         rdf:about="">
        <dc:format>image/svg+xml</dc:format>
        <dc:type
           rdf:resource="http://purl.org/dc/dcmitype/StillImage" />
        <dc:title />
      </cc:Work>
    </rdf:RDF>
  </metadata>
  <g
     inkscape:label="Layer 1"
     inkscape:groupmode="layer"
     id="layer1">
    <path
       inkscape:connector-curvature="0"
       style="fill:none;fill-opacity:0.75;fill-rule:evenodd;stroke:#000000;stroke-width:1pt"
       d="M 92.705754,6.445 C 86.195756,-1.0917 74.535116,-0.5599 66.321599,3.7926 60.620959,6.8135 54.783604,10.3058 50.983703,15.516 c -5.198828,7.1283 -0.612723,18.4065 8.263044,21.3059 6.653423,1.8189 14.243875,-3.4636 8.90763,-12.6726 m 4.924944,-10.6714 c 6.417001,-6.6213 17.62837,-1.3468 20.290103,6.4263 2.26262,6.6075 2.76597,14.4975 9.142116,18.9229 6.4116,4.4501 17.11201,5.3114 21.24643,-2.2553 3.53049,-6.4613 -3.15596,-14.7398 -10.26475,-12.4589 M 56.564942,51.0895 c 7.040518,4.8966 14.771451,-1.7301 19.709948,-6.7631 5.238867,-5.3392 13.277892,-1.1573 16.920854,4.3694 3.32096,5.0383 11.700016,8.3208 15.912896,2.3237"
       id="path1735" />
    <path
       inkscape:connector-curvature="0"
       style="fill:none;fill-opacity:0.75;fill-rule:evenodd;stroke:#000000;stroke-width:1pt;stroke-linecap:butt;stroke-linejoin:miter;stroke-opacity:1"
       d="m 219.19427,6.7994 c -6.50999,-7.5367 -18.17063,-7.0049 -26.38415,-2.6524 -5.70064,3.0209 -11.53799,6.5132 -15.3379,11.7234 -5.19883,7.1283 -0.61273,18.4065 8.26305,21.3059 6.65342,1.8189 14.24387,-3.4636 8.90763,-12.6726"
       id="path1729"
       sodipodi:nodetypes="cssss" />
    <path
       inkscape:connector-curvature="0"
       style="fill:none;fill-opacity:0.75;fill-rule:evenodd;stroke:#000000;stroke-width:1pt;stroke-linecap:butt;stroke-linejoin:miter;stroke-opacity:1"
       d="m 199.56784,13.8323 c 6.417,-6.6213 17.62837,-1.3468 20.29011,6.4263 2.26261,6.6075 2.76596,14.4975 9.14211,18.9229 6.41159,4.4501 17.112,5.3114 21.24642,-2.2553 3.53049,-6.4613 -3.15597,-14.7398 -10.26475,-12.4589"
       id="path1730"
       sodipodi:nodetypes="cssss" />
    <path
       inkscape:connector-curvature="0"
       style="fill:none;fill-opacity:0.75;fill-rule:evenodd;stroke:#000000;stroke-width:1pt"
       d="m 183.05347,51.4439 c 7.04051,4.8966 14.77145,-1.7301 19.70994,-6.7631 5.23887,-5.3392 13.27789,-1.1573 16.92086,4.3694 3.32095,5.0383 11.70001,8.3208 15.91288,2.3237"
       id="path1731"
       sodipodi:nodetypes="csss" />
  </g>
</svg>
